Comparing integration methods
…
## # A tibble: 6 x 2
##       d integral
##   <int>    <dbl>
## 1     2     1.41
## 2     3     1.73
## 3     4     2.00
## 4     5     2.24
## 5     6     2.45
## 6     7     2.65

tibble(d = seq(2, 7, by = .1)) %>% 
  mutate(integral = sqrt(d)) -> df2 
df2 

## # A tibble: 51 x 2
##        d integral
##    <dbl>    <dbl>
##  1   2       1.41
##  2   2.1     1.45
##  3   2.2     1.48
##  4   2.3     1.52
##  5   2.4     1.55
##  6   2.5     1.58
##  7   2.6     1.61
##  8   2.7     1.64
##  9   2.8     1.67
## 10   2.9     1.70
## #  with 41 more rows
…
